{
  "hotels": [
    {
      "id": "1fe3c1d7-f440-478f-b0dc-8bf912d1692d",
      "name": "Farrell Group",
      "description": "The Apollotech B340 is an affordable wireless mouse with reliable connectivity, 12 months battery life and modern design",
      "rating": 5,
      "distance_to_venue": 48,
      "price_category": "high",
      "amenities": "spa,restaurant",
      "images": [
        {
          "image": "http://placeimg.com/640/480/nightlife"
        },
        {
          "image": "http://placeimg.com/640/480/nightlife"
        }
      ],
      "rooms": [
        {
          "id": "71822349-22a3-42a1-8946-1cec4d8ec5c6",
          "name": "Fantastic",
          "description": "3rd generation",
          "max_occupancy": 4,
          "rating": 2,
          "price_in_usd": 238,
          "available": "true"
        },
        {
          "id": "ded1fbc9-1fff-4ddf-8aea-07966460e550",
          "name": "Fantastic",
          "description": "optimal",
          "max_occupancy": 3,
          "rating": 3,
          "price_in_usd": 320,
          "available": "true"
        },
        {
          "id": "9764959c-3f62-4acb-82bf-7be2dc319f26",
          "name": "Refined",
          "description": "responsive",
          "max_occupancy": 1,
          "rating": 1,
          "price_in_usd": 161,
          "available": "false"
        },
        {
          "id": "e05375b2-1eea-49c9-8efd-3a22d8d7b6f4",
          "name": "Refined",
          "description": "zero tolerance",
          "max_occupancy": 4,
          "rating": 5,
          "price_in_usd": 214,
          "available": "true"
        }
      ]
    },
    {
      "id": "b17b81b9-c7ac-4bf0-bdf1-b8a2405a0023",
      "name": "Barrows, Effertz and Windler",
      "description": "The Football Is Good For Training And Recreational Purposes",
      "rating": 2,
      "distance_to_venue": 68,
      "price_category": "high",
      "amenities": "pool",
      "images": [
        {
          "image": "http://placeimg.com/640/480/nightlife"
        },
        {
          "image": "http://placeimg.com/640/480/nightlife"
        },
        {
          "image": "http://placeimg.com/640/480/nightlife"
        }
      ],
      "rooms": [
        {
          "id": "230a3004-28ef-4f5c-983f-2a7d55851046",
          "name": "Intelligent",
          "description": "bottom-line",
          "max_occupancy": 4,
          "rating": 2,
          "price_in_usd": 307,
          "available": "false"
        },
        {
          "id": "698de58f-a9d4-4034-ae2c-b5455f2c8b1e",
          "name": "Fantastic",
          "description": "human-resource",
          "max_occupancy": 2,
          "rating": 2,
          "price_in_usd": 153,
          "available": "true"
        },
        {
          "id": "0d454ed1-5835-4133-bfbc-a515ba2f2ed3",
          "name": "Small",
          "description": "24 hour",
          "max_occupancy": 1,
          "rating": 4,
          "price_in_usd": 267,
          "available": "true"
        }
      ]
    },
    {
      "id": "cdc5793d-b195-4272-a81d-776e455b7413",
      "name": "Koch, Harvey and Bashirian",
      "description": "The slim & simple Maple Gaming Keyboard from Dev Byte comes with a sleek body and 7- Color RGB LED Back-lighting for smart functionality",
      "rating": 1,
      "distance_to_venue": 32,
      "price_category": "high",
      "amenities": "restaurant,gym,free_wifi",
      "images": [
        {
          "image": "http://placeimg.com/640/480/nightlife"
        },
        {
          "image": "http://placeimg.com/640/480/nightlife"
        },
        {
          "image": "http://placeimg.com/640/480/nightlife"
        }
      ],
      "rooms": [
        {
          "id": "06283cf7-21bf-408a-8460-471b8c0e3143",
          "name": "Gorgeous",
          "description": "object-oriented",
          "max_occupancy": 1,
          "rating": 3,
          "price_in_usd": 164,
          "available": "true"
        },
        {
          "id": "fc92a729-50af-4387-814c-3530e57abe04",
          "name": "Sleek",
          "description": "bifurcated",
          "max_occupancy": 4,
          "rating": 1,
          "price_in_usd": 120,
          "available": "true"
        },
        {
          "id": "fcda52eb-54fb-481c-a70b-3ca66e27e00e",
          "name": "Sleek",
          "description": "global",
          "max_occupancy": 3,
          "rating": 2,
          "price_in_usd": 123,
          "available": "false"
        },
        {
          "id": "4500ff7d-6ee7-4169-81f3-8c1b7ec75fa7",
          "name": "Gorgeous",
          "description": "attitude-oriented",
          "max_occupancy": 2,
          "rating": 2,
          "price_in_usd": 160,
          "available": "true"
        },
        {
          "id": "917555bd-3760-4bbf-9367-a6221beb6e69",
          "name": "Rustic",
          "description": "optimal",
          "max_occupancy": 4,
          "rating": 4,
          "price_in_usd": 240,
          "available": "true"
        }
      ]
    },
    {
      "id": "f75d14c8-5e2a-4c10-9309-ca84f6196789",
      "name": "Tromp Group",
      "description": "Ergonomic executive chair upholstered in bonded black leather and PVC padded seat and back for all-day comfort and support",
      "rating": 2,
      "distance_to_venue": 26,
      "price_category": "medium",
      "amenities": "free_parking",
      "images": [
        {
          "image": "http://placeimg.com/640/480/nightlife"
        },
        {
          "image": "http://placeimg.com/640/480/nightlife"
        },
        {
          "image": "http://placeimg.com/640/480/nightlife"
        },
        {
          "image": "http://placeimg.com/640/480/nightlife"
        },
        {
          "image": "http://placeimg.com/640/480/nightlife"
        }
      ],
      "rooms": [
        {
          "id": "de60038f-d7dc-4979-b86b-f505823774c0",
          "name": "Gorgeous",
          "description": "global",
          "max_occupancy": 1,
          "rating": 3,
          "price_in_usd": 134,
          "available": "false"
        },
        {
          "id": "a07da0ce-afc8-4c38-a18a-79ed502576da",
          "name": "Licensed",
          "description": "user-facing",
          "max_occupancy": 1,
          "rating": 3,
          "price_in_usd": 260,
          "available": "false"
        },
        {
          "id": "94c2d124-dc8a-4119-8c51-f1d3e2ebb090",
          "name": "Unbranded",
          "description": "user-facing",
          "max_occupancy": 3,
          "rating": 5,
          "price_in_usd": 53,
          "available": "true"
        }
      ]
    },
    {
      "id": "0b368435-797f-4377-a78e-94ef19d76be8",
      "name": "Kling, Farrell and Zemlak",
      "description": "The Nagasaki Lander is the trademarked name of several series of Nagasaki sport bikes, that started with the 1984 ABC800J",
      "rating": 4,
      "distance_to_venue": 8,
      "price_category": "high",
      "amenities": "pets",
      "images": [
        {
          "image": "http://placeimg.com/640/480/nightlife"
        },
        {
          "image": "http://placeimg.com/640/480/nightlife"
        },
        {
          "image": "http://placeimg.com/640/480/nightlife"
        },
        {
          "image": "http://placeimg.com/640/480/nightlife"
        }
      ],
      "rooms": [
        {
          "id": "b81b4490-ac26-4ede-ae36-34f67f7f0418",
          "name": "Ergonomic",
          "description": "homogeneous",
          "max_occupancy": 2,
          "rating": 2,
          "price_in_usd": 260,
          "available": "true"
        },
        {
          "id": "0c2539d0-5fd9-4b62-a87a-09df96852185",
          "name": "Incredible",
          "description": "actuating",
          "max_occupancy": 1,
          "rating": 5,
          "price_in_usd": 264,
          "available": "true"
        }
      ]
    },
    {
      "id": "3443fe62-35c5-46bc-af56-f5307ba4eff9",
      "name": "Wisozk LLC",
      "description": "New range of formal shirts are designed keeping you in mind. With fits and styling that will make you stand apart",
      "rating": 1,
      "distance_to_venue": 25,
      "price_category": "high",
      "amenities": "gym,free_wifi,restaurant",
      "images": [
        {
          "image": "http://placeimg.com/640/480/nightlife"
        },
        {
          "image": "http://placeimg.com/640/480/nightlife"
        }
      ],
      "rooms": [
        {
          "id": "8498d36a-86b2-478a-8acd-7ff154cee6d5",
          "name": "Tasty",
          "description": "next generation",
          "max_occupancy": 4,
          "rating": 5,
          "price_in_usd": 329,
          "available": "false"
        },
        {
          "id": "be748dd5-66b2-4cc7-975b-9ead35207024",
          "name": "Refined",
          "description": "impactful",
          "max_occupancy": 2,
          "rating": 1,
          "price_in_usd": 64,
          "available": "false"
        }
      ]
    },
    {
      "id": "0090a57f-3791-471f-ae6f-7e92dd7528c8",
      "name": "Jerde, Durgan and Stamm",
      "description": "Carbonite web goalkeeper gloves are ergonomically designed to give easy fit",
      "rating": 5,
      "distance_to_venue": 15,
      "price_category": "high",
      "amenities": "restaurant,pool",
      "images": [
        {
          "image": "http://placeimg.com/640/480/nightlife"
        },
        {
          "image": "http://placeimg.com/640/480/nightlife"
        },
        {
          "image": "http://placeimg.com/640/480/nightlife"
        },
        {
          "image": "http://placeimg.com/640/480/nightlife"
        }
      ],
      "rooms": [
        {
          "id": "a9babbef-1f3e-494c-8eaa-e96fb18fe3c3",
          "name": "Intelligent",
          "description": "grid-enabled",
          "max_occupancy": 4,
          "rating": 4,
          "price_in_usd": 295,
          "available": "false"
        },
        {
          "id": "09da05b7-660f-43d3-9266-2cadb5e28e17",
          "name": "Tasty",
          "description": "solution-oriented",
          "max_occupancy": 3,
          "rating": 3,
          "price_in_usd": 134,
          "available": "true"
        },
        {
          "id": "4f717846-6d41-4662-af0e-6d969e4c489f",
          "name": "Unbranded",
          "description": "intangible",
          "max_occupancy": 3,
          "rating": 2,
          "price_in_usd": 160,
          "available": "true"
        },
        {
          "id": "3a0a6453-6b31-40ba-9f46-4aa8916c80e4",
          "name": "Awesome",
          "description": "encompassing",
          "max_occupancy": 4,
          "rating": 4,
          "price_in_usd": 279,
          "available": "false"
        }
      ]
    },
    {
      "id": "52f9dfbf-e14d-4a53-8cf9-1e652f61fedb",
      "name": "Shanahan - Hirthe",
      "description": "The automobile layout consists of a front-engine design, with transaxle-type transmissions mounted at the rear of the engine and four wheel drive",
      "rating": 5,
      "distance_to_venue": 75,
      "price_category": "high",
      "amenities": "pool",
      "images": [
        {
          "image": "http://placeimg.com/640/480/nightlife"
        },
        {
          "image": "http://placeimg.com/640/480/nightlife"
        },
        {
          "image": "http://placeimg.com/640/480/nightlife"
        },
        {
          "image": "http://placeimg.com/640/480/nightlife"
        }
      ],
      "rooms": [
        {
          "id": "3fe10386-2b2f-465b-a2a2-d6043c73fb9d",
          "name": "Licensed",
          "description": "maximized",
          "max_occupancy": 3,
          "rating": 2,
          "price_in_usd": 137,
          "available": "true"
        },
        {
          "id": "21474762-50fa-41c7-9fbf-29ca296fade0",
          "name": "Licensed",
          "description": "24/7",
          "max_occupancy": 2,
          "rating": 1,
          "price_in_usd": 213,
          "available": "true"
        },
        {
          "id": "614d518a-5382-4415-aca5-b501dea44a82",
          "name": "Awesome",
          "description": "real-time",
          "max_occupancy": 1,
          "rating": 4,
          "price_in_usd": 216,
          "available": "false"
        },
        {
          "id": "f42fd851-e160-49fe-af24-ec2e30527fdd",
          "name": "Rustic",
          "description": "non-volatile",
          "max_occupancy": 4,
          "rating": 2,
          "price_in_usd": 336,
          "available": "false"
        },
        {
          "id": "b8c36c65-bf71-4975-b629-049b4589f724",
          "name": "Awesome",
          "description": "bandwidth-monitored",
          "max_occupancy": 1,
          "rating": 3,
          "price_in_usd": 69,
          "available": "true"
        }
      ]
    },
    {
      "id": "2239c8a8-294e-47be-a67a-68df9b775074",
      "name": "Schowalter, Smitham and Howell",
      "description": "New range of formal shirts are designed keeping you in mind. With fits and styling that will make you stand apart",
      "rating": 2,
      "distance_to_venue": 111,
      "price_category": "high",
      "amenities": "pets,gym",
      "images": [
        {
          "image": "http://placeimg.com/640/480/nightlife"
        },
        {
          "image": "http://placeimg.com/640/480/nightlife"
        }
      ],
      "rooms": [
        {
          "id": "40fda008-066d-4ffc-aea4-98e5436b9198",
          "name": "Refined",
          "description": "analyzing",
          "max_occupancy": 4,
          "rating": 5,
          "price_in_usd": 138,
          "available": "false"
        },
        {
          "id": "7d6fa0a0-2839-4d7a-8e7f-62ba267d1f4a",
          "name": "Unbranded",
          "description": "methodical",
          "max_occupancy": 2,
          "rating": 2,
          "price_in_usd": 113,
          "available": "false"
        }
      ]
    },
    {
      "id": "f2ac5b01-a54c-458b-aabb-45aade52cd57",
      "name": "Stehr - Connelly",
      "description": "The beautiful range of Apple Naturalé that has an exciting mix of natural ingredients. With the Goodness of 100% Natural Ingredients",
      "rating": 1,
      "distance_to_venue": 115,
      "price_category": "low",
      "amenities": "gym",
      "images": [
        {
          "image": "http://placeimg.com/640/480/nightlife"
        },
        {
          "image": "http://placeimg.com/640/480/nightlife"
        },
        {
          "image": "http://placeimg.com/640/480/nightlife"
        },
        {
          "image": "http://placeimg.com/640/480/nightlife"
        },
        {
          "image": "http://placeimg.com/640/480/nightlife"
        }
      ],
      "rooms": [
        {
          "id": "f04ea2f9-398c-42fb-b5c1-0cc38fbf289c",
          "name": "Incredible",
          "description": "next generation",
          "max_occupancy": 1,
          "rating": 5,
          "price_in_usd": 275,
          "available": "true"
        },
        {
          "id": "a5162ed1-e37e-4491-93cb-f967b7f7fd96",
          "name": "Tasty",
          "description": "asynchronous",
          "max_occupancy": 2,
          "rating": 2,
          "price_in_usd": 312,
          "available": "false"
        },
        {
          "id": "fe74b69c-30db-4fd8-8c11-01a43c3558b0",
          "name": "Incredible",
          "description": "incremental",
          "max_occupancy": 1,
          "rating": 4,
          "price_in_usd": 107,
          "available": "true"
        }
      ]
    },
    {
      "id": "b9436e53-0e8d-4a07-ab90-e44b829f6e91",
      "name": "Schoen, Flatley and Johnson",
      "description": "The Nagasaki Lander is the trademarked name of several series of Nagasaki sport bikes, that started with the 1984 ABC800J",
      "rating": 3,
      "distance_to_venue": 26,
      "price_category": "low",
      "amenities": "free_parking,gym",
      "images": [
        {
          "image": "http://placeimg.com/640/480/nightlife"
        },
        {
          "image": "http://placeimg.com/640/480/nightlife"
        },
        {
          "image": "http://placeimg.com/640/480/nightlife"
        }
      ],
      "rooms": [
        {
          "id": "908009b2-0a13-40a5-b83b-01c636944fb3",
          "name": "Rustic",
          "description": "scalable",
          "max_occupancy": 4,
          "rating": 2,
          "price_in_usd": 282,
          "available": "true"
        },
        {
          "id": "312c23bf-0ecd-4acd-9f46-e4ad610f2a1e",
          "name": "Sleek",
          "description": "content-based",
          "max_occupancy": 3,
          "rating": 1,
          "price_in_usd": 148,
          "available": "true"
        },
        {
          "id": "0ee85e16-3be1-4178-a1bd-6f3c38512feb",
          "name": "Tasty",
          "description": "grid-enabled",
          "max_occupancy": 4,
          "rating": 1,
          "price_in_usd": 318,
          "available": "true"
        },
        {
          "id": "dbef7efc-9c01-42ce-9a02-4bc9d2f6aa92",
          "name": "Fantastic",
          "description": "reciprocal",
          "max_occupancy": 2,
          "rating": 2,
          "price_in_usd": 230,
          "available": "true"
        }
      ]
    },
    {
      "id": "9d006fd0-d64d-47b1-b473-224f569fbdce",
      "name": "Crist Inc",
      "description": "The slim & simple Maple Gaming Keyboard from Dev Byte comes with a sleek body and 7- Color RGB LED Back-lighting for smart functionality",
      "rating": 1,
      "distance_to_venue": 20,
      "price_category": "medium",
      "amenities": "pool",
      "images": [
        {
          "image": "http://placeimg.com/640/480/nightlife"
        },
        {
          "image": "http://placeimg.com/640/480/nightlife"
        },
        {
          "image": "http://placeimg.com/640/480/nightlife"
        }
      ],
      "rooms": [
        {
          "id": "44a62b45-dab0-4f24-af9c-09b42ef3128d",
          "name": "Small",
          "description": "disintermediate",
          "max_occupancy": 1,
          "rating": 1,
          "price_in_usd": 58,
          "available": "false"
        },
        {
          "id": "02ef4f13-a0d9-400e-86c7-6c01166238ce",
          "name": "Gorgeous",
          "description": "multi-state",
          "max_occupancy": 3,
          "rating": 2,
          "price_in_usd": 335,
          "available": "false"
        }
      ]
    }
  ]
}